apache2.service is not a native service, redirecting to systemd-sysv-install.
Executing: /lib/systemd/systemd-sysv-install disable apache2
insserv: warning: current start runlevel(s) (empty) of script `apache2' overrides LSB defaults (2 3 4 5).
insserv: warning: current stop runlevel(s) (0 1 2 3 4 5 6) of script `apache2' overrides LSB defaults (0 1 6).
Removed /etc/systemd/system/multi-user.target.wants/bonescript-autorun.service.
Removed /etc/systemd/system/multi-user.target.wants/roboticscape.service.
Removed /etc/systemd/system/sockets.target.wants/node-red.socket.
Removed /etc/systemd/system/sockets.target.wants/bonescript.socket.
Removed /etc/systemd/system/sockets.target.wants/cloud9.socket.
